#
# westfallchurch.mtl
#

newmtl WESTFALLWEATHEREDBARN01SKIN
illum 1
Kd 0.000 0.000 0.000
Ka 0.500 0.500 0.500
Ks 0.000 0.000 0.000
Ns 1.0
map_Kd Objects/westfallchurch/WESTFALLWEATHEREDBARN01SKIN.bmp

newmtl WestFallBaseStone
illum 1
Kd 0.000 0.000 0.000
Ka 0.500 0.500 0.500
Ks 0.000 0.000 0.000
Ns 1.0
map_Kd Objects/westfallchurch/WestFallBaseStone.bmp

newmtl WESTFALLWEATHEREDBARN01ROOFSKIN
illum 1
Kd 0.000 0.000 0.000
Ka 0.500 0.500 0.500
Ks 0.000 0.000 0.000
Ns 1.0
map_Kd Objects/westfallchurch/WESTFALLWEATHEREDBARN01ROOFSKIN.bmp

newmtl WestFarmWindow
illum 1
Kd 0.000 0.000 0.000
Ka 0.500 0.500 0.500
Ks 0.000 0.000 0.000
Ns 1.0
map_Kd Objects/westfallchurch/WestFarmWindow.bmp

newmtl WestFallDoor
illum 1
Kd 0.000 0.000 0.000
Ka 0.500 0.500 0.500
Ks 0.000 0.000 0.000
Ns 1.0
map_Kd Objects/westfallchurch/WestFallDoor.bmp

