# 3ds Max Wavefront OBJ Exporter v0.97b - (c)2007 guruware
# File Created: 17.11.2014 01:19:04

newmtl Material__2299
	Ns 10.0000
	Ni 1.5000
	d 1.0000
	illum 2
	Ka 0.5880 0.5880 0.5880
	Kd 0.5880 0.5880 0.5880
	Ks 0.0000 0.0000 0.0000
	map_Kd Objects/Banana/BTleave_Defuse.bmp
	
newmtl Material__2301
	Ns 10.0000
	Ni 1.5000
	d 1.0000
	illum 2
	Ka 0.5880 0.5880 0.5880
	Kd 0.5880 0.5880 0.5880
	Ks 0.0000 0.0000 0.0000
	map_Kd Objects/Banana/BTree_Defuse.bmp

newmtl Material__2300
	Ns 10.0000
	Ni 1.5000
	d 1.0000
	illum 2
	Ka 0.5880 0.5880 0.5880
	Kd 0.5880 0.5880 0.5880
	Ks 0.0000 0.0000 0.0000
	map_Kd Objects/Banana/BTbranch_Defuse.bmp
