#
# oilrig.mtl
#

newmtl OilRigfloor
illum 1
Kd 0.000 0.000 0.000
Ka 0.500 0.500 0.500
Ks 0.000 0.000 0.000
Ns 1.0
map_Kd Objects/oilrig/OilRigfloor.bmp

newmtl OilRiglegs
illum 1
Kd 0.000 0.000 0.000
Ka 0.500 0.500 0.500
Ks 0.000 0.000 0.000
Ns 1.0
map_Kd Objects/oilrig/OilRiglegs.bmp

newmtl OilRigtanks
illum 1
Kd 0.000 0.000 0.000
Ka 0.500 0.500 0.500
Ks 0.000 0.000 0.000
Ns 1.0
map_Kd Objects/oilrig/OilRigtanks.bmp

newmtl OilRiglegs_Dbl
illum 1
Kd 0.000 0.000 0.000
Ka 0.500 0.500 0.500
Ks 0.000 0.000 0.000
Ns 1.0
map_Kd Objects/oilrig/OilRiglegs.bmp
